@startuml
!include params.puml


class AndroidEmulator {
+ avd_name : str
+ emulator_name : str

- _logger : logging.Logger
- _previous_start_kwargs : Dict[str, Union[str, int, None]]

- _port : int
- _path_to_avd_dir : Path
- _path_to_avd_ini : Path
- _path_to_backup : Path

- _process : Optional[subprocess.Popen] = None

- _start_from_backup : bool
- _restore_and_remove_backup : bool
- _complete_restore : bool = True
----
+ AndroidEmulator(avd_name : str, backup_path : Optional[Path], port : int = 5580)

+ start(pcap_path : str = '', mitmproxy_address : str = '', timeout : int = 40,\n           start_from_snapshot : bool = True)

+ restart_without_reset(pcap_path : str = '', mitmproxy_address : str = '',\n                                       timeout : int = 40, start_from_snapshot : bool = True)

+ stop()
+ delete()
+ is_running() : bool

- _backup_avd() : Path
- _restore_avd(complete_restore : bool = True)
- _restart()
}


@enduml